<?xml version="1.0" encoding="UTF-8" standalone="no"?>
<svg width="34px" height="27px" viewBox="0 0 34 27" version="1.1" xmlns="http://www.w3.org/2000/svg" xmlns:xlink="http://www.w3.org/1999/xlink">
    <!-- Generator: Sketch 48.2 (47327) - http://www.bohemiancoding.com/sketch -->
    <title>icon-briefcase</title>
    <desc>Created with Sketch.</desc>
    <defs><linearGradient xy="100%" id="gradient"><stop stop-color="#fff" offset="0%"></stop><stop stop-color="#fff" offset="100%"></stop></linearGradient></defs>
    <g id="Standard-Bank---Icon-Setup" stroke="none" stroke-width="1" fill="none" fill-rule="evenodd" transform="translate(-633.000000, -3289.000000)">
        <g id="Icons---Banking" transform="translate(69.000000, 3093.000000)" fill="#FFFFFF">
            <g id="icon-briefcase" transform="translate(564.000000, 192.000000)">
                <path d="M31.1666667,8.26315789 L24.0833333,8.26315789 L24.0833333,6.84210526 C24.0833333,5.27468421 22.8111667,4 21.25,4 L12.75,4 C11.1874167,4 9.91666667,5.27468421 9.91666667,6.84210526 L9.91666667,8.26315789 L2.83333333,8.26315789 C1.27216667,8.26315789 0,9.53784211 0,11.1052632 L0,28.1578947 C0,29.7253158 1.27216667,31 2.83333333,31 L31.1666667,31 C32.7278333,31 34,29.7253158 34,28.1578947 L34,11.1052632 C34,9.53784211 32.7278333,8.26315789 31.1666667,8.26315789 Z M12.75,8.26315789 L21.25,8.26315789 L21.25,6.84210526 L12.75,6.84210526 L12.75,8.26315789 Z M2.83333333,18.2105263 L31.1666667,18.2105263 L31.1666667,11.1052632 L2.83333333,11.1052632 L2.83333333,18.2105263 Z M2.83333333,28.1578947 L2.83333333,21.0526316 L12.75,21.0526316 L12.75,22.4736842 L21.25,22.4736842 L21.25,21.0526316 L31.1666667,21.0526316 L31.1666667,28.1578947 L2.83333333,28.1578947 Z"></path>
            </g>
        </g>
    </g>
</svg>